module github.com/theblackturtle/gospider

go 1.13

require (
	github.com/gocolly/colly/v2 v2.0.1
	github.com/oxffaa/gopher-parse-sitemap v0.0.0-20191021113419-005d2eb1def4
	github.com/sirupsen/logrus v1.4.2
	github.com/spf13/cobra v0.0.5
	golang.org/x/net v0.0.0-20200202094626-16171245cfb2
)
